Returns the available ECB metadata — ecb_metadata • bbk
…
name
The name of the metadata

    See also

    Other metadata:
bbk_metadata()

    Examples

# \donttest{
ecb_metadata("datastructure")
#> # A tibble: 84 × 3
#>    agency id          name                                                     
#>    <chr>  <chr>       <chr>                                                    
#>  1 ECB    ECB_AME1    AMECO                                                    
#>  2 ECB    ECB_BCS1    Business Cycle Statistics                                
#>  3 ECB    ECB_BKN1    Banknotes Statistics                                     
#>  4 ECB    ECB_BLS1    Bank Lending Survey Statistics                           
#>  5 ECB    ECB_BOP1    Balance of Payments, I.I.P. and Reserve Assets Statistics
#>  6 ECB    ECB_BOP_BNT Statistics on Shipments of Euro Banknotes                
#>  7 ECB    ECB_BSI1    Balance Sheet Items                                      
#>  8 ECB    ECB_CAR1    Car Statistics                                           
#>  9 ECB    ECB_CBD1    Statistics on Consolidated Banking Data                  
#> 10 ECB    ECB_CBD2    Statistics on Consolidated Banking Data                  
#> # ℹ 74 more rows
ecb_metadata("datastructure", "ECB")
#> # A tibble: 75 × 3
#>    agency id          name                                                     
#>    <chr>  <chr>       <chr>                                                    
#>  1 ECB    ECB_AME1    AMECO                                                    
#>  2 ECB    ECB_BCS1    Business Cycle Statistics                                
#>  3 ECB    ECB_BKN1    Banknotes Statistics                                     
#>  4 ECB    ECB_BLS1    Bank Lending Survey Statistics                           
#>  5 ECB    ECB_BOP1    Balance of Payments, I.I.P. and Reserve Assets Statistics
#>  6 ECB    ECB_BOP_BNT Statistics on Shipments of Euro Banknotes                
#>  7 ECB    ECB_BSI1    Balance Sheet Items                                      
#>  8 ECB    ECB_CAR1    Car Statistics                                           
#>  9 ECB    ECB_CBD1    Statistics on Consolidated Banking Data                  
#> 10 ECB    ECB_CBD2    Statistics on Consolidated Banking Data                  
#> # ℹ 65 more rows
…
