Returns ECB data for a given flow and key — ecb_data • bbk
…
    See also

    Other data:
bbk_data(),
bbk_series()

    Examples

# \donttest{
# fetch US dollar/Euro exchange rate
ecb_data("EXR", "D.USD.EUR.SP00.A")
#> # A tibble: 6,610 × 16
#>    date       key          value title description freq  currency currency_denom
#>    <date>     <chr>        <dbl> <chr> <chr>       <chr> <chr>    <chr>         
#>  1 1999-01-04 D.USD.EUR.S…  1.18 US d… ECB refere… daily USD      EUR           
#>  2 1999-01-05 D.USD.EUR.S…  1.18 US d… ECB refere… daily USD      EUR           
#>  3 1999-01-06 D.USD.EUR.S…  1.17 US d… ECB refere… daily USD      EUR           
#>  4 1999-01-07 D.USD.EUR.S…  1.16 US d… ECB refere… daily USD      EUR           
#>  5 1999-01-08 D.USD.EUR.S…  1.17 US d… ECB refere… daily USD      EUR           
#>  6 1999-01-11 D.USD.EUR.S…  1.16 US d… ECB refere… daily USD      EUR           
#>  7 1999-01-12 D.USD.EUR.S…  1.15 US d… ECB refere… daily USD      EUR           
#>  8 1999-01-13 D.USD.EUR.S…  1.17 US d… ECB refere… daily USD      EUR           
#>  9 1999-01-14 D.USD.EUR.S…  1.17 US d… ECB refere… daily USD      EUR           
#> 10 1999-01-15 D.USD.EUR.S…  1.16 US d… ECB refere… daily USD      EUR           
#> # ℹ 6,600 more rows
#> # ℹ 8 more variables: exr_type <chr>, exr_suffix <chr>, collection <chr>,
#> #   unit_mult <chr>, time_format <chr>, decimals <chr>, source_agency <chr>,
#> #   unit <chr>
# fetch data for multiple keys
ecb_data("EXR", c("D.USD", "JPY.EUR.SP00.A"))
#> # A tibble: 13,220 × 16
#>    date       key          value title description freq  currency currency_denom
#>    <date>     <chr>        <dbl> <chr> <chr>       <chr> <chr>    <chr>         
#>  1 1999-01-04 D.JPY.EUR.S…  134. Japa… ECB refere… daily JPY      EUR           
#>  2 1999-01-05 D.JPY.EUR.S…  131. Japa… ECB refere… daily JPY      EUR           
#>  3 1999-01-06 D.JPY.EUR.S…  131. Japa… ECB refere… daily JPY      EUR           
#>  4 1999-01-07 D.JPY.EUR.S…  129. Japa… ECB refere… daily JPY      EUR           
#>  5 1999-01-08 D.JPY.EUR.S…  130. Japa… ECB refere… daily JPY      EUR           
#>  6 1999-01-11 D.JPY.EUR.S…  126. Japa… ECB refere… daily JPY      EUR           
#>  7 1999-01-12 D.JPY.EUR.S…  130. Japa… ECB refere… daily JPY      EUR           
#>  8 1999-01-13 D.JPY.EUR.S…  132. Japa… ECB refere… daily JPY      EUR           
#>  9 1999-01-14 D.JPY.EUR.S…  133. Japa… ECB refere… daily JPY      EUR           
#> 10 1999-01-15 D.JPY.EUR.S…  132. Japa… ECB refere… daily JPY      EUR           
#> # ℹ 13,210 more rows
#> # ℹ 8 more variables: exr_type <chr>, exr_suffix <chr>, unit_mult <chr>,
#> #   time_format <chr>, unit <chr>, decimals <chr>, source_agency <chr>,
#> #   collection <chr>
…
